{
   "aboutText": {
      "description": "About",
      "message": "このプログラムについて"
   },
   "activeModeDelayText": {
      "description": "Delay Before Automatic Cleaning",
      "message": "自動クリーニングの前の遅延"
   },
   "activeModeText": {
      "description": "Enable Automatic Cleaning",
      "message": "自動クリーニングを有効にする"
   },
   "activityLogSiteDataDomainsText": {
      "description": "Invoked cleanup of $siteData$ for: $domains$.  Found in Activity Log Detailed Entries.",
      "message": "$domains$ の $siteData$ のクリーンアップ処理を呼びだしました",
      "placeholders": {
         "domains": {
            "content": "$2",
            "example": "example.com, github.com"
         },
         "siteData": {
            "content": "$1",
            "example": "Cache (translated version)"
         }
      }
   },
   "addNewExpressionNotification": {
      "description": "Adding $expression$ to list type $listType$ under cookie store $cookieStore$.  Used in notification when right-click action was performed.",
      "message": "クッキーストア $cookieStore$ の下のリスト型 $listType$ に $expression$ を追加します。",
      "placeholders": {
         "cookieStore": {
            "content": "$3",
            "example": "'default' -or- 'firefox-container-1 (Personal)'"
         },
         "expression": {
            "content": "$1",
            "example": "example.com"
         },
         "listType": {
            "content": "$2",
            "example": "WHITE"
         }
      }
   },
   "addNewExpressionNotificationFailed": {
      "description": "Could not fetch domain to add from where right-click was issued.",
      "message": "右クリックで得られる場所からは、追加するドメインを取得できませんでした。"
   },
   "addNewExpressionNotificationIgnore": {
      "description": "If expression already exists, this will be ignored.  Used in notification when right-click action was performed.",
      "message": "式がすでにある場合何も行いません。"
   },
   "autoDeleteDisabledText": {
      "description": "Auto-clean disabled",
      "message": "自動削除無効"
   },
   "autoDeleteEnabledText": {
      "description": "Auto-clean enabled",
      "message": "自動削除有効"
   },
   "browsingDataWarning": {
      "description": "WARNING:  Upon enabling any of the following site data cleanup options, ALL existing data for that type will be cleared.  Found in CAD Settings",
      "message": "警告：以下のサイトデータクリーンアップオプションのいずれかを有効にすると、そのタイプの既存のデータはすべて消去されます。"
   },
   "cacheCleanupText": {
      "description": "Enable Cache Cleanup (Firefox 78+, Chrome 74+).  Found in CAD Settings.",
      "message": "キャッシュのクリーンアップを有効化（Firefox 78 以降、Chrome 74 以降）"
   },
   "cacheText": {
      "description": "Cache.  Primarily used in notifications.",
      "message": "キャッシュ"
   },
   "chromeDebugMode": {
      "description": "Ensure 'Developer Mode' is enabled, then click on 'background page' under Inspect View.  This is shown if debug mode is enabled.",
      "message": "「開発者モード」が有効になっていることを確認し、検査ビューの「バックグラウンドページ」をクリックします。"
   },
   "cleanDiscardedText": {
      "description": "Enable Cleanup for Discarded/Unloaded Tabs.  Found in Settings.",
      "message": "閉じたタブ/未読込のタブのクリーンアップを有効にする"
   },
   "cleanExpiredCookiesText": {
      "description": "Clean All Expired Cookies.  Found in Settings.",
      "message": "期限切れのクッキーをすべて削除する"
   },
   "cleanIgnoringOpenTabsText": {
      "description": "Clean, include open tabs.  Found in the additional cleanup options in the popup.",
      "message": "開いてるタブを含め消去する"
   },
   "cleanText": {
      "description": "Clean",
      "message": "消去する"
   },
   "cleanupActionsBypass": {
      "description": "Warning - Actions below ignore settings!    Found in the additional cleanup options in the popup.",
      "message": "警告 - 以下のアクションは設定を無視します！"
   },
   "cleanupDomainChangeText": {
      "description": "Enable Cleanup on Domain Change",
      "message": "ドメイン変更のクリーンアップを有効にします。"
   },
   "cleanupLogText": {
      "description": "Cleanup Log",
      "message": "クリーンアップのログ"
   },
   "clearLogsText": {
      "description": "Clear Logs",
      "message": "ログを削除"
   },
   "clearURLText": {
      "description": "Remove All",
      "message": "すべて削除"
   },
   "consoleDebugMode": {
      "description": "Click on the Console Tab.  Found after enabling debug mode.",
      "message": "コンソールタブをクリックします"
   },
   "containerSiteDataWarning": {
      "description": "WARNING:  Enabling Container Tabs with any of the additional browsing data cleanups above may cause unwanted side effects due to browser API limitations.  Site data types, with the exception of cookies, will be cleared by hostname for ALL containers.  Found in CAD Settings.",
      "message": "警告：「コンテナ」タブを有効化したまま、上記のいずれかの閲覧データのクリーンアップをすると、ブラウザー API の制限により、望ましくない副作用が発生する可能性があります。 クッキーを除くサイトデータタイプは、すべてのコンテナのホスト名によって消去されます。"
   },
   "contextMenusParentClean": {
      "description": "Manual Cleaning Menu.  Shown on right-clicks of Page/Browser Action.",
      "message": "手動でのクリーニングメニュー"
   },
   "contextMenusParentExpression": {
      "description": "Add Domain/Expression Menu.  Shown on right-clicks of Page/Link/Selection.",
      "message": "ドメイン/式メニューを追加する"
   },
   "contextMenusSelectedDomainLink": {
      "description": "For domain only of selected link.  Shown in right-click menu.",
      "message": "選択したリンクのドメインの場合のみ"
   },
   "contextMenusSelectedDomainPage": {
      "description": "For domain only of selected page.  Shown in right-click menu.",
      "message": "選択したページのドメインの場合のみ"
   },
   "contextMenusSelectedDomainText": {
      "description": "For domain only of selected text: $selected$.  Shown in right-click menu.",
      "message": "選択したテキストのドメインの場合のみ： $selected$",
      "placeholders": {
         "selected": {
            "content": "$1",
            "example": "github.com"
         }
      }
   },
   "contextMenusSelectedSubdomainLink": {
      "description": "For all subdomains with domain of selected link.  Shown in right-click menu.",
      "message": "選択したリンクのドメインを持つすべてのサブドメインの場合"
   },
   "contextMenusSelectedSubdomainPage": {
      "description": "For all subdomains with domain of selected page.  Shown in right-click menu.",
      "message": "選択したページのドメインを持つすべてのサブドメインの場合"
   },
   "contextMenusSelectedSubdomainText": {
      "description": "For all subdomains with domain of selected text.  Shown in right-click menu.",
      "message": "選択したテキストのドメインを持つすべてのサブドメインの場合： $selected$",
      "placeholders": {
         "selected": {
            "content": "$1",
            "example": "github.com"
         }
      }
   },
   "contextualIdentitiesEnabledText": {
      "description": "Enable Support for Firefox's Container Tabs.  Only in Firefox.",
      "message": "Firefoxのコンテナタブのサポートを有効にする"
   },
   "contributeText": {
      "description": "Contribute",
      "message": "開発・サポートへの支援金"
   },
   "contributorsText": {
      "description": "Contributors",
      "message": "貢献した人"
   },
   "cookieCleanUpOnStartText": {
      "description": "Clean Cookies from Open Tabs on Startup",
      "message": "起動時に開いているタブからクッキーを消去する"
   },
   "cookieCleanupIgnoreOpenTabsText": {
      "description": "Run cleanup now, include cookies from open tabs.  This is shown on mouseover from the available dropdown buttons.",
      "message": "今すぐクリーンアップを実行し、開いているタブからドメインを含めます"
   },
   "cookieCleanupText": {
      "description": "Run cleanup now, exclude domains from open tabs. This is shown on mouseover on the button.",
      "message": "今すぐクリーンアップを実行し、開いているタブからドメインを除外します"
   },
   "cookiesText": {
      "description": "Cookies.  Primarily used in popup via alternate clean action dropdown.",
      "message": "クッキー"
   },
   "createDefaultExpressionOptionsText": {
      "description": "Create Default Expression Options.  Used in 'List of Expressions'",
      "message": "既定値の「式のオプション」を作成する"
   },
   "currentContainerInfo": {
      "description": "Current Container Selected:  $ID$ ( $Name ).  Found in List of Expressions only if Firefox containers enabled.",
      "message": "現在選択されているコンテナ：$ID$ ( $Name$ )",
      "placeholders": {
         "ID": {
            "content": "$1",
            "example": "firefox-container-1"
         },
         "Name": {
            "content": "$2",
            "example": "Personal (whatever the user has named the container) - or - translated version of 'Invalid Container'"
         }
      }
   },
   "debugMode": {
      "description": "Enable Debug Mode (Additional Console Outputs)",
      "message": "デバッグモードを有効にする（追加のコンソール出力）"
   },
   "defaultContainerText": {
      "description": "No Container.  This will be in brackets.  Used in List of Expression in Firefox for Default / No Container",
      "message": "コンテナ無し"
   },
   "defaultSettingsText": {
      "description": "Restore Default Settings",
      "message": "初期設定に戻す"
   },
   "defaultText": {
      "description": "Default.  Used in List of Expression in Firefox for Default / No Container.",
      "message": "既定値"
   },
   "disableAutoDeleteText": {
      "description": "Toggle to disable automatic cleanup (manual mode)",
      "message": "自動削除無効に切り替え(手動モード)"
   },
   "documentationText": {
      "description": "Documentation",
      "message": "解説（公式文書：Documentation）"
   },
   "domainExpressionsText": {
      "description": "Domain Expression",
      "message": "ドメイン式"
   },
   "domainPlaceholderText": {
      "description": "Domain Expression.  For this one we'll keep the string as is.",
      "message": "example.com, subdomain.example.com, *.example.com, /(^|.)example\\.com/"
   },
   "dropdownAdditionalCleaningOptions": {
      "description": "(Screen-readers only) - Toggle Additional Cleaning Actions Dropdown",
      "message": "追加のクリーニングアクションのドロップダウンを切り替える"
   },
   "editExpressionText": {
      "description": "Edit expression",
      "message": "編集"
   },
   "enableAutoDeleteText": {
      "description": "Toggle to enable automatic cleanup (automatic mode)",
      "message": "自動削除有効に切り替え(自動モード)"
   },
   "enableCleanupLogText": {
      "description": "Enable Cleanup Log and Counter",
      "message": "クリーンアップのログとカウンターを有効にします。"
   },
   "enableContextMenus": {
      "description": "Enable Context Menus (Right-Click Menu).  Shown in CAD Settings",
      "message": "コンテキストメニュー（右クリックメニュー）を有効にする"
   },
   "enableGlobalSubdomainText": {
      "description": "Enable Check for Subdomains",
      "message": "サブドメインのチェックを有効にする"
   },
   "enableGreyListCleanup": {
      "description": "Enable Greylist Cleanup on Browser Restart",
      "message": "ブラウザの再起動時にグレイリストのクリーンアップを有効にする"
   },
   "enableNewVersionPopup": {
      "description": "Enable Popup when New Version is Released",
      "message": "新しいバージョンのリリース時にポップアップを有効にする"
   },
   "errorText": {
      "description": "Error!",
      "message": "エラー"
   },
   "exportSettingsText": {
      "description": "Export Core Settings",
      "message": "コア設定のエクスポート"
   },
   "exportTitleTimestamp": {
      "description": "A timestamp will be appended to the filename on export.",
      "message": "エクスポート時にファイル名にタイムスタンプが付加されます。"
   },
   "exportURLSText": {
      "description": "Export Expressions",
      "message": "式のエクスポート"
   },
   "expressionListText": {
      "description": "List of Expressions",
      "message": "式のリスト"
   },
   "extensionDescription": {
      "description": "Control your cookies! Automatically delete unwanted cookies from your closed tabs while keeping the ones you want.",
      "message": "cookieをコントロールしよう！タブを閉じたら、使用していないcookieを自動で削除。任意で残すこともできます。"
   },
   "extensionName": {
      "description": "Name of the extension.",
      "message": "Cookie AutoDelete"
   },
   "faqText": {
      "description": "Frequently Asked Questions, Common issues and solutions",
      "message": "よくある質問（問答集）、一般的な問題と解決策"
   },
   "filterDebugMode": {
      "description": "To see only debug outputs by this extension, filter output by the following line.  Found after enabling debug mode.",
      "message": "この拡張機能によるデバッグ出力のみを表示するには、以下の行で出力をフィルタリングします:"
   },
   "filterText": {
      "description": "Filter",
      "message": "フィルタ"
   },
   "greyCleanLocalstorage": {
      "description": "Uncheck 'Keep LocalStorage' on New Greylist Expressions",
      "message": "新しいグレイリスト式の 'ローカルストレージを維持する' のチェックを外す"
   },
   "greyListWordText": {
      "description": "Greylist",
      "message": "グレイリスト"
   },
   "groupExpressionDefaultNotice": {
      "description": "Looking to set default expression options for new expressions?  It has been enhanced to be an expression option itself!  Visit $listExpression$ to get started!  Shown in Settings",
      "message": "新しい式の既定値での「式のオプション」を設定する方法をお探しですか？ それ自体が「式のオプション」になるように拡張されています！  開始するには $listExpression$ にアクセスしてください！",
      "placeholders": {
         "listExpression": {
            "content": "$1",
            "example": "List of Expressions \u003C- the translated version"
         }
      }
   },
   "importCoreSettingsFailed": {
      "description": "Import Core Settings Failed - Found unknown setting",
      "message": "コア設定のインポートに失敗しました - 不明な設定が見つかりました"
   },
   "importCoreSettingsText": {
      "description": "Import Core Settings",
      "message": "コア設定のインポート"
   },
   "importFileTypeInvalid": {
      "description": "File given is not a type we handle",
      "message": "与えられたファイルは、我々が扱うタイプではありません。"
   },
   "importFileValidationFailed": {
      "description": "File given failed validation",
      "message": "指定されたファイルは検証に失敗しました。"
   },
   "importMissingKey": {
      "description": "Missing identifier",
      "message": "識別子が欠落しています"
   },
   "importURLSText": {
      "description": "Import Expressions",
      "message": "式のインポート"
   },
   "indexedDBCleanupText": {
      "description": "Enable IndexedDB Cleanup (Firefox 77+, Chrome 74+).  Found in CAD Settings.",
      "message": "IndexedDB のクリーンアップを有効化（Firefox 77 以降、Chrome 74 以降）"
   },
   "indexedDBText": {
      "description": "IndexedDB.  Primarily used in notifications.",
      "message": "IndexedDB"
   },
   "keepAllCookiesGreyText": {
      "description": "Keep All Cookies until restart. Found in Expression Options. For Greylist entries.",
      "message": "再起動するまで、すべてのクッキーを保持する"
   },
   "keepAllCookiesText": {
      "description": "Keep All Cookies. Found in Expression Options. For Whitelist entries.",
      "message": "すべてのクッキーを維持する"
   },
   "keepCacheGreyText": {
      "description": "Keep Cache until restart. Found in Expression Options. For Greylist entries.",
      "message": "再起動するまで、キャッシュを保持する"
   },
   "keepCacheText": {
      "description": "Keep Cache. Found in Expression Options. For Whitelist entries.",
      "message": "キャッシュを保持する"
   },
   "keepDefaultIcon": {
      "description": "Keep Default Icons on all list types.  Disabled: keep blue icon, grey for automatic cleaning disabled.  Enabled: red/yellow/blue depending on matching expressions in list.",
      "message": "すべてのリストタイプでデフォルトのアイコンを維持する"
   },
   "keepIndexedDBGreyText": {
      "description": "Keep IndexedDB until restart. Found in Expression Options. For Greylist entries.",
      "message": "再起動するまで、IndexedDB を保持する"
   },
   "keepIndexedDBText": {
      "description": "Keep IndexedDB. Found in Expression Options. For Whitelist entries.",
      "message": "IndexedDB を保持"
   },
   "keepLocalstorageGreyText": {
      "description": "Keep LocalStorage until restart. Found in Expression Options. For Greylist entries.",
      "message": "再起動するまで、LocalStorage を保持する"
   },
   "keepLocalstorageText": {
      "description": "Keep LocalStorage. Found in Expression Options. For Whitelist entries.",
      "message": "ローカルストレージを維持する"
   },
   "keepPluginDataGreyText": {
      "description": "Keep Plugin Data until restart. Found in Expression Options. For Greylist entries.",
      "message": "再起動するまで、プラグインデータを保持する"
   },
   "keepPluginDataText": {
      "description": "Keep Plugin Data. Found in Expression Options. For Whitelist entries.",
      "message": "プラグインデータを保持する"
   },
   "keepServiceWorkersGreyText": {
      "description": "Keep Service Workers until restart. Found in Expression Options. For Greylist entries.",
      "message": "再起動するまで、サービスワーカーを保持する"
   },
   "keepServiceWorkersText": {
      "description": "Keep Service Workers. Found in Expression Options. For Whitelist entries.",
      "message": "サービスワーカーを保持する"
   },
   "keepText": {
      "description": "Keep",
      "message": "保持する"
   },
   "listTypeText": {
      "description": "List Type",
      "message": "種類のリスト"
   },
   "localStorageCleanupText": {
      "description": "Enable LocalStorage Cleanup (Firefox 58+, Chrome 74+).  Found in CAD Settings.",
      "message": "LocalStorage のクリーンアップを有効化（Firefox 58 以降、Chrome 74 以降）"
   },
   "localStorageText": {
      "description": "LocalStorage.  Primarily used in notifications.",
      "message": "ローカルストレージ"
   },
   "manualActionNotification": {
      "description": "Manual Action Notification - used as Notification Title.",
      "message": "手動での動作を通知する"
   },
   "manualCleanError": {
      "description": "$siteData$  cannot be cleaned for tab:.  Shown as notification if manual clean cookies cannot be done.",
      "message": "タブの場合は $siteData$ をクリーンアップできません：",
      "placeholders": {
         "siteData": {
            "content": "$1",
            "example": "Cookies"
         }
      }
   },
   "manualCleanNothing": {
      "description": "No $siteData$ were found for cleaning on $url$.  Used in notification after manual clean.",
      "message": "$url$ のクリーニング用の $siteData$ は見つかりませんでした。",
      "placeholders": {
         "siteData": {
            "content": "$1",
            "example": "Cookies"
         },
         "url": {
            "content": "$2",
            "example": "example.com"
         }
      }
   },
   "manualCleanRemoved": {
      "description": "Removed $deleted$ of $total$.  Used as part of success notification on manual clean.",
      "message": "$total$ 件中 $deleted$ 件を削除しました。",
      "placeholders": {
         "deleted": {
            "content": "$1",
            "example": "5"
         },
         "total": {
            "content": "$2",
            "example": "5"
         }
      }
   },
   "manualCleanSiteDataAll": {
      "description": "Clean All for this domain.  Found in Popup clean dropdown menu.",
      "message": "このドメインのすべてを消去する"
   },
   "manualCleanSiteDataAllDomain": {
      "description": "Clear all site data for $domain$.  Found in Popup clean dropdown menu as mouseover.",
      "message": "$domain$ のすべてのサイトデータを消去する",
      "placeholders": {
         "domain": {
            "content": "$1",
            "example": "example.com"
         }
      }
   },
   "manualCleanSiteDataCache": {
      "description": "Clean Cache for this domain.  Found in Popup clean dropdown menu.",
      "message": "このドメインのキャッシュを消去"
   },
   "manualCleanSiteDataCacheDomain": {
      "description": "Clear all Cache for $domain$.  Found in Popup clean dropdown menu as mouseover.",
      "message": "$domain$ のすべてのキャッシュを消去する",
      "placeholders": {
         "domain": {
            "content": "$1",
            "example": "example.com"
         }
      }
   },
   "manualCleanSiteDataCookies": {
      "description": "Clean Cookies for this domain.  Found in Popup clean dropdown menu.",
      "message": "このドメインのクッキーを消去する"
   },
   "manualCleanSiteDataCookiesDomain": {
      "description": "Clear all Cookies for $domain$.  Found in Popup clean dropdown menu as mouseover.",
      "message": "$domain$ のすべてのクッキーを消去する",
      "placeholders": {
         "domain": {
            "content": "$1",
            "example": "example.com"
         }
      }
   },
   "manualCleanSiteDataIndexedDB": {
      "description": "Clean IndexedDB for this domain.  Found in Popup clean dropdown menu.",
      "message": "このドメインの IndexedDB を消去する"
   },
   "manualCleanSiteDataIndexedDBDomain": {
      "description": "Clear all IndexedDB for $domain$.  Found in Popup clean dropdown menu as mouseover.",
      "message": "$domain$ のすべての IndexedDB を消去する",
      "placeholders": {
         "domain": {
            "content": "$1",
            "example": "example.com"
         }
      }
   },
   "manualCleanSiteDataLocalStorage": {
      "description": "Clean LocalStorage for this domain.  Found in Popup clean dropdown menu.",
      "message": "このドメインの LocalStorage を消去する"
   },
   "manualCleanSiteDataLocalStorageDomain": {
      "description": "Clear all LocalStorage for $domain$.  Found in Popup clean dropdown menu as mouseover.",
      "message": "$domain$ のすべての LocalStorage を消去する",
      "placeholders": {
         "domain": {
            "content": "$1",
            "example": "example.com"
         }
      }
   },
   "manualCleanSiteDataPluginData": {
      "description": "Clean Plugin Data for this domain.  Found in Popup clean dropdown menu.",
      "message": "このドメインのプラグインデータを消去する"
   },
   "manualCleanSiteDataPluginDataDomain": {
      "description": "Clear all Plugin Data for $domain$.  Found in Popup clean dropdown menu as mouseover.",
      "message": "$domain$ のすべてのプラグインデータを消去する",
      "placeholders": {
         "domain": {
            "content": "$1",
            "example": "example.com"
         }
      }
   },
   "manualCleanSiteDataServiceWorkers": {
      "description": "Clean Service Workers for this domain.  Found in Popup clean dropdown menu.",
      "message": "このドメインのサービスワーカーを消去する"
   },
   "manualCleanSiteDataServiceWorkersDomain": {
      "description": "Clear all Service Workers for $domain$.  Found in Popup clean dropdown menu as mouseover.",
      "message": "$domain$ のすべてのサービスワーカーを消去する",
      "placeholders": {
         "domain": {
            "content": "$1",
            "example": "example.com"
         }
      }
   },
   "manualCleanSuccess": {
      "description": "Cleanup for $siteData$ on $url$ result:  Shown as notification after successful manual cleaning.",
      "message": "$url$ の $siteData$ のクリーンアップした結果です：",
      "placeholders": {
         "siteData": {
            "content": "$1",
            "example": "Cookies"
         },
         "url": {
            "content": "$2",
            "example": "example.com"
         }
      }
   },
   "manualNotificationsText": {
      "description": "Show Notification from Manual Site Data Cleanups.  Found in settings",
      "message": "手動のサイトデータクリーンアップからの通知を表示する"
   },
   "matchedDomainExpressionText": {
      "description": "Matched Domain Expression",
      "message": "一致するドメイン式"
   },
   "menuText": {
      "description": "Menu.  Only shown when the settings screen is small / when the hamburger icon shows / when the menu is collapsed.",
      "message": "メニュー"
   },
   "minutesText": {
      "description": "minute(s)",
      "message": "分"
   },
   "missingContainerText": {
      "description": "INVALID CONTAINER.  Shown when a CAD list exists but cannot link id to available containers (Firefox).",
      "message": "無効なコンテナ"
   },
   "noCleanupLogText": {
      "description": "No Cleanup Logs Found",
      "message": "クリーンアップのログが見つかりません"
   },
   "noExpressionsText": {
      "description": "No expressions defined.",
      "message": "式が定義されていない"
   },
   "noPrivateLogging": {
      "description": "Cleanup Logs will not be generated for tabs in Private Browsing / Incognito / InPrivate.",
      "message": "プライベートブラウジングでタブのクリーンアップログは生成されません"
   },
   "noRulesText": {
      "description": "No rules matched this domain",
      "message": "このドメインのルールはありません。"
   },
   "noneText": {
      "description": "None",
      "message": "なし"
   },
   "notificationContent": {
      "description": "Some site data, including 123 Cookie(s), removed from: google.com, facebook.com",
      "message": "$Num$ 個のCookieを $Websites$ から削除",
      "placeholders": {
         "num": {
            "content": "$1",
            "example": "123"
         },
         "websites": {
            "content": "$2",
            "example": "google.com, facebook.com"
         }
      }
   },
   "notificationDisabledText": {
      "description": "Notification disabled",
      "message": "通知無効"
   },
   "notificationEnabledText": {
      "description": "Notification enabled",
      "message": "通知有効"
   },
   "notificationTitle": {
      "description": "Cookies were deleted!  Used in Notification Title.",
      "message": "クッキーが削除された!"
   },
   "notificationTitleSiteData": {
      "description": "Site Data Removal Triggered!  Used in Notification Title.",
      "message": "サイトデータの削除が発動されました！"
   },
   "notifyCookieCleanUpText": {
      "description": "Show Notification After Automatic Cleanup.  Found in settings.",
      "message": "自動クリーンアップ後に通知を表示します。 "
   },
   "notifyCookieCleanupDelayText": {
      "description": "Duration for Notifications",
      "message": "通知を表示する時間"
   },
   "oldReleasesText": {
      "description": "Older release notes can be viewed online at",
      "message": "過去のリリースノートは、オンラインで表示できます："
   },
   "openDebugMode": {
      "description": "To view the debug outputs, open a new tab and visit",
      "message": "デバッグ出力を表示するには、新しいタブを開いてください"
   },
   "optionsText": {
      "description": "Options",
      "message": "オプション"
   },
   "pluginDataCleanupText": {
      "description": "Enable Plugin Data Cleanup (Firefox 78+, Chrome 74+).  Found in CAD Settings.",
      "message": "プラグインデータのクリーンアップを有効化（Firefox 78 以降、Chrome 74 以降）"
   },
   "pluginDataText": {
      "description": "Plugin Data.  Primarily used in notifications.",
      "message": "プラグインデータ"
   },
   "popupCookieCountText": {
      "description": "Cookie(s)",
      "message": "クッキー"
   },
   "preferencesText": {
      "description": "Settings",
      "message": "設定"
   },
   "questionExpression": {
      "description": "How do Expressions work?",
      "message": "式の仕組みは?"
   },
   "reasonCADSiteDataCookie": {
      "description": "Clean to trigger Site Data cleaning for $hostname$.  Found in Activity Log Detailed Entries.",
      "message": "$hostname$ のサイトデータクリーニングを起動するために消去する。",
      "placeholders": {
         "hostname": {
            "content": "$1",
            "placeholder": "example.com"
         }
      }
   },
   "reasonCleanCookieExpired": {
      "description": "Partial clean because of expired cookies from $hostname$.",
      "message": " $hostname$ からのクッキーが期限切れのため、部分的にクリーンアップされました。",
      "placeholders": {
         "hostname": {
            "content": "$1",
            "placeholder": "sub.domain.com"
         }
      }
   },
   "reasonCleanCookieName": {
      "description": "Partial clean because of matched $matchedExpression$ in the $listType$.  Used in cleanup logs.",
      "message": "$listType$ で $matchedExpression$ が合致したので、部分的にクリーンアップします",
      "placeholders": {
         "listType": {
            "content": "$2",
            "example": "Whitelist"
         },
         "matchedExpression": {
            "content": "$1",
            "example": "*.google.com"
         }
      }
   },
   "reasonCleanGreyList": {
      "description": "Clean because of startup cleanup and $matchedExpression$ is in the Greylist. Used in cleanup log.",
      "message": "$matchedExpression$ はグレイリストに含まれるため再起動時に消去されます",
      "placeholders": {
         "matchedExpression": {
            "content": "$1",
            "example": "*.google.com"
         }
      }
   },
   "reasonCleanNoList": {
      "description": "Clean because $hostname$ is not in the White or Grey lists",
      "message": "$hostname$ はホワイト/グレイリストに含まれないので消去します",
      "placeholders": {
         "hostname": {
            "content": "$1",
            "example": "sub.google.com"
         }
      }
   },
   "reasonCleanStartupNoList": {
      "description": "Clean because of startup cleanup and $hostname$ is not in the White or Grey lists",
      "message": "$hostname$ はホワイト/グレイリストに含まれないので再起動時に消去します",
      "placeholders": {
         "hostname": {
            "content": "$1",
            "example": "sub.google.com"
         }
      }
   },
   "reasonKeep": {
      "description": "Keep because of matched $matchedExpression$ in the $listType$",
      "message": "$listType$ で一致する $matchedExpression$ のため保持します。",
      "placeholders": {
         "listType": {
            "content": "$2",
            "example": "Whitelist"
         },
         "matchedExpression": {
            "content": "$1",
            "example": "*.google.com"
         }
      }
   },
   "reasonKeepOpenTab": {
      "description": "Keep because of open tabs of *.$mainDomain$",
      "message": ".$mainDomain$ のタブが開いているので保持します",
      "placeholders": {
         "mainDomain": {
            "content": "$1",
            "example": "google.com"
         }
      }
   },
   "reasonTabsWereIgnored": {
      "description": "[Clean because of sub.google.com is not in the White or Grey lists] and also open tabs were ignored",
      "message": "そして、開いているタブも無視されました。"
   },
   "reasonTabsWereNotIgnored": {
      "description": "[Clean because of sub.google.com is not in the White or Grey lists] or in any open tabs",
      "message": "もしくは開いているタブで"
   },
   "regularExpressionEquivalentText": {
      "description": "Regular Expression Equivalent",
      "message": "正規表現に相当"
   },
   "releaseNotesText": {
      "description": "Release Notes",
      "message": "更新履歴"
   },
   "removeActivityLogEntryText": {
      "description": "Remove Log Entry.  Shown in summary activity log for individual log removal.",
      "message": "ログエントリを削除する"
   },
   "removeAllExpressions": {
      "description": "Remove All Expressions",
      "message": "すべての式を削除する"
   },
   "removeAllExpressionsConfirm": {
      "description": "Are you sure you want to remove ALL ($expressionCount$) saved expression(s) from ($listCount$) list(s)?\n\nTHIS CANNOT BE UNDONE!\n\nType [ $expressionCount$ ] and click OK to delete.  Popup prompt if Delete All Expression is clicked.",
      "message": " ($listCount$) リストから保存された式をすべて ($expressionCount$) 削除しますか？\n\nこれは元に戻せません！\n\n削除するには、[ $expressionCount$ ] と入力し、[ OK ] をクリックします。",
      "placeholders": {
         "expressionCount": {
            "content": "$1",
            "example": "75"
         },
         "listCount": {
            "content": "$2",
            "example": "5"
         }
      }
   },
   "removeAllExpressionsNoneFound": {
      "description": "No expressions to remove!",
      "message": "削除する式はありません！"
   },
   "removeExpressionText": {
      "description": "Remove expression",
      "message": "式を削除"
   },
   "removeListText": {
      "description": "Remove All Expressions from Selected List.  Shown in List of Expressions, only on Firefox and if containers/contextual identities is enabled.",
      "message": "選択したリストからすべての式を削除する"
   },
   "removeStorageCount": {
      "description": "Removed $count$ item(s) from $storageType$. Used in manual localstorage clean notification.",
      "message": "$storageType$ から $count$ アイテムを 削除しました。",
      "placeholders": {
         "count": {
            "content": "$1",
            "example": "1"
         },
         "storageType": {
            "content": "$2",
            "example": "LocalStorage"
         }
      }
   },
   "reportIssuesText": {
      "description": "Report issues and suggest features",
      "message": "問題を報告、機能の提案"
   },
   "resetCookieCounterText": {
      "description": "Reset Cookie Counters.  Button in Welcome Page.",
      "message": "クッキーの計数をリセットする"
   },
   "resetExtensionDataText": {
      "description": "Reset Extension Data",
      "message": "拡張機能のデータをリセット"
   },
   "restoreText": {
      "description": "Ex: Restore Cleanup",
      "message": "復元"
   },
   "reviewLinkMessage": {
      "description": "Thanks for trying out Cookie AutoDelete. If you liked it, then please give a review.",
      "message": "$cadTitle$ を使用いただきありがとうございます。 お気に召しましたらレビューをお書きください。",
      "placeholders": {
         "cadTitle": {
            "content": "$1",
            "example": "Cookie AutoDelete"
         }
      }
   },
   "saveExpressionText": {
      "description": "Save expression",
      "message": "保存する"
   },
   "secondsText": {
      "description": "second(s)",
      "message": "秒"
   },
   "serviceWorkersCleanupText": {
      "description": "Enable Service Workers Cleanup (Firefox 77+, Chrome 74+).  Found in CAD Settings.",
      "message": "サービスワーカーのクリーンアップを有効化（Firefox 77 以降、Chrome 74 以降）"
   },
   "serviceWorkersText": {
      "description": "Service Workers.  Primarily used in notifications.",
      "message": "サービスワーカー"
   },
   "sessionStorageText": {
      "description": "SessionStorage.  Used in manual localstorage clean notification",
      "message": "セッションストレージ"
   },
   "settingGroupAutoClean": {
      "description": "Automatic Cleaning Options",
      "message": "自動クリーニングのオプション"
   },
   "settingGroupExpression": {
      "description": "Expression Options",
      "message": "式のオプション"
   },
   "settingGroupExtension": {
      "description": "Extension Options",
      "message": "拡張機能のオプション"
   },
   "settingGroupOtherBrowsing": {
      "description": "Other Browsing Data Cleanup Options",
      "message": "他のブラウジングデータのクリーンアップオプション"
   },
   "settingsText": {
      "description": "$CAD$ Settings",
      "message": "$CAD$ 設定",
      "placeholders": {
         "CAD": {
            "content": "CAD",
            "example": "CAD - Short form of Cookie AutoDelete"
         }
      }
   },
   "showNumberOfCookiesInIconText": {
      "description": "Show Number of Cookies for that Domain over the Icon",
      "message": "アイコンの上にあるドメインのクッキー数を表示する"
   },
   "siteDataText": {
      "description": "Site Data.  Found in Activity Log Summary and Notifications.",
      "message": "サイトデータ"
   },
   "sizePopupText": {
      "description": "Size of Popup (in px).  This sets the font size in the Popup.",
      "message": "ポップアップのサイズ (ピクセル単位で)"
   },
   "sizeSettingText": {
      "description": "Size of Setting Pages (in px).  This sets the font size in the Setting Pages.",
      "message": "設定ページのサイズ (ピクセル単位で)"
   },
   "stopEditingText": {
      "description": "Stop editing",
      "message": "編集を中止する"
   },
   "successText": {
      "description": "Success!",
      "message": "成功しました！"
   },
   "toGreyListText": {
      "description": "Add to Greylist (Clean on Browser Restart)",
      "message": "グレイリストに追加(ブラウザを閉じたときに消去)"
   },
   "toWhiteListText": {
      "description": "Add to Whitelist (Never Clean)",
      "message": "ホワイトリストに追加(消去しない)"
   },
   "toggleNotificationText": {
      "description": "Toggle to enable or disable notifications",
      "message": "通知状態の切り替え"
   },
   "toggleToGreyListWordText": {
      "description": "Toggle to greylist",
      "message": "グレイリストに切り替え"
   },
   "toggleToWhiteListWordText": {
      "description": "Toggle to whitelist",
      "message": "ホワイトリストに切り替え"
   },
   "versionNumberText": {
      "description": "$CAD$ version 3.2.1.  The actual number is formatted differently and will be right below this text.",
      "message": "$CAD$ バージョン",
      "placeholders": {
         "CAD": {
            "content": "$1",
            "example": "CAD or Cookie AutoDelete"
         }
      }
   },
   "versionText": {
      "description": "Firefox version",
      "message": "$browser$ バージョン",
      "placeholders": {
         "browser": {
            "content": "$1",
            "example": "Firefox"
         }
      }
   },
   "welcomeMessage": {
      "description": "Hi there! During this session, Cookie AutoDelete has deleted 123 cookies and in total 456 cookies.",
      "message": "こんにちは！ このセッション中、$cadTitle$ は $sessionDeleted$ のクッキーを削除し、合計で $totalDeleted$ のクッキーを削除しました。",
      "placeholders": {
         "cadTitle": {
            "content": "$1",
            "example": "Cookie AutoDelete"
         },
         "sessionDeleted": {
            "content": "$2",
            "example": "123"
         },
         "totalDeleted": {
            "content": "$3",
            "example": "456"
         }
      }
   },
   "welcomeText": {
      "description": "Welcome",
      "message": "ようこそ"
   },
   "whiteCleanLocalstorage": {
      "description": "Uncheck 'Keep LocalStorage' on New Whitelist Expressions",
      "message": "新しいホワイトリスト式の 'ローカルストレージを保持する' のチェックを外す"
   },
   "whiteListWordText": {
      "description": "Whitelist",
      "message": "ホワイトリスト"
   }
}
