{
   "aboutText": {
      "description": "About",
      "message": "O aplikaci"
   },
   "activeModeDelayText": {
      "description": "Delay Before Automatic Cleaning",
      "message": "Zpoždění před automatickým čištěním"
   },
   "activeModeText": {
      "description": "Enable Automatic Cleaning",
      "message": "Povolit automatické čištění? Zpoždění před čištěním:"
   },
   "autoDeleteDisabledText": {
      "description": "Auto-clean disabled",
      "message": "Automatické čištění zakázáno"
   },
   "autoDeleteEnabledText": {
      "description": "Auto-clean enabled",
      "message": "Automatické čištění povoleno"
   },
   "chromeDebugMode": {
      "description": "Ensure 'Developer Mode' is enabled, then click on 'background page' under Inspect View.  This is shown if debug mode is enabled.",
      "message": "Ujistěte se, že je \"Vývojářský režim\" povolen, poté klikněte na 'stránku pozadí' pod kontrolou zobrazení."
   },
   "cleanIgnoringOpenTabsText": {
      "description": "Clean, include open tabs.  Found in the additional cleanup options in the popup.",
      "message": "Čiré, včetně otevřených panelů"
   },
   "cleanText": {
      "description": "Clean",
      "message": "Vyčistit"
   },
   "cleanupActionsBypass": {
      "description": "Warning - Actions below ignore settings!    Found in the additional cleanup options in the popup.",
      "message": "Varování - Akce níže ignorují nastavení!"
   },
   "cleanupDomainChangeText": {
      "description": "Enable Cleanup on Domain Change",
      "message": "Povolit čištění při změně domény"
   },
   "cleanupLogText": {
      "description": "Cleanup Log",
      "message": "Vyčistit protokol"
   },
   "clearLogsText": {
      "description": "Clear Logs",
      "message": "Vymazat protokoly"
   },
   "clearURLText": {
      "description": "Remove All",
      "message": "Odstranit vše"
   },
   "consoleDebugMode": {
      "description": "Click on the Console Tab.  Found after enabling debug mode.",
      "message": "Klikněte na záložku konzole"
   },
   "contextualIdentitiesEnabledText": {
      "description": "Enable Support for Firefox's Container Tabs.  Only in Firefox.",
      "message": "Povolení podpory pro Firefox je Kontejnerové Tabs"
   },
   "contributeText": {
      "description": "Contribute",
      "message": "Přispějte"
   },
   "contributorsText": {
      "description": "Contributors",
      "message": "Přispěvatelé"
   },
   "cookieCleanUpOnStartText": {
      "description": "Clean Cookies from Open Tabs on Startup",
      "message": "Vyčistit soubory cookie z otevřených panelů při spuštění"
   },
   "cookieCleanupIgnoreOpenTabsText": {
      "description": "Run cleanup now, include cookies from open tabs.  This is shown on mouseover from the available dropdown buttons.",
      "message": "Spustit čištění, zahrnout domény z otevřených panelů"
   },
   "cookieCleanupText": {
      "description": "Run cleanup now, exclude domains from open tabs. This is shown on mouseover on the button.",
      "message": "Spustit čištění nyní, vyloučit domény z otevřených panelů"
   },
   "debugMode": {
      "description": "Enable Debug Mode (Additional Console Outputs)",
      "message": "Povolit režim ladění (další výstupy konzoly)"
   },
   "defaultSettingsText": {
      "description": "Restore Default Settings",
      "message": "Obnovit výchozí nastavení"
   },
   "disableAutoDeleteText": {
      "description": "Toggle to disable automatic cleanup (manual mode)",
      "message": "Přepnout pro vypnutí automatického čištění (ruční režim)"
   },
   "documentationText": {
      "description": "Documentation",
      "message": "Dokumentace"
   },
   "domainExpressionsText": {
      "description": "Domain Expression",
      "message": "Výraz domény"
   },
   "dropdownAdditionalCleaningOptions": {
      "description": "(Screen-readers only) - Toggle Additional Cleaning Actions Dropdown",
      "message": "Přepnout rozbalovací seznam dodatečných čistících akcí"
   },
   "editExpressionText": {
      "description": "Edit expression",
      "message": "Upravit výraz"
   },
   "enableAutoDeleteText": {
      "description": "Toggle to enable automatic cleanup (automatic mode)",
      "message": "Zapnout/zapnout automatické čištění (automatický režim)"
   },
   "enableCleanupLogText": {
      "description": "Enable Cleanup Log and Counter",
      "message": "Povolit vyčištění logu a počítadla"
   },
   "enableGlobalSubdomainText": {
      "description": "Enable Check for Subdomains",
      "message": "Povolit kontrolu poddomén"
   },
   "enableGreyListCleanup": {
      "description": "Enable Greylist Cleanup on Browser Restart",
      "message": "Povolit čištění Greylist při restartu prohlížeče"
   },
   "enableNewVersionPopup": {
      "description": "Enable Popup when New Version is Released",
      "message": "Povolit vyskakovací okno, když je vydána nová verze"
   },
   "errorText": {
      "description": "Error!",
      "message": "Chyba!"
   },
   "exportSettingsText": {
      "description": "Export Core Settings",
      "message": "Exportovat jádro"
   },
   "exportTitleTimestamp": {
      "description": "A timestamp will be appended to the filename on export.",
      "message": "Časové razítko bude připojeno k názvu souboru při vývozu."
   },
   "exportURLSText": {
      "description": "Export Expressions",
      "message": "Exportovat výrazy"
   },
   "extensionDescription": {
      "description": "Control your cookies! Automatically delete unwanted cookies from your closed tabs while keeping the ones you want.",
      "message": "Ovládejte soubory cookie! Automaticky odstraňte nechtěné soubory cookie z uzavřených karet při zachování toho, co chcete."
   },
   "extensionName": {
      "description": "Name of the extension.",
      "message": "Cookie AutoDelete"
   },
   "faqText": {
      "description": "Frequently Asked Questions, Common issues and solutions",
      "message": "Často kladené otázky, společné otázky a řešení"
   },
   "filterDebugMode": {
      "description": "To see only debug outputs by this extension, filter output by the following line.  Found after enabling debug mode.",
      "message": "Chcete-li zobrazit pouze ladící výstupy podle tohoto rozšíření, filtrovat výstup podle následujícího řádku:"
   },
   "filterText": {
      "description": "Filter",
      "message": "Filtr"
   },
   "greyCleanLocalstorage": {
      "description": "Uncheck 'Keep LocalStorage' on New Greylist Expressions",
      "message": "Zrušte zaškrtnutí 'Ponechat LocalStorage' na Novém greylistu výrazů"
   },
   "greyListWordText": {
      "description": "Greylist",
      "message": "Greylist"
   },
   "importCoreSettingsFailed": {
      "description": "Import Core Settings Failed - Found unknown setting",
      "message": "Nastavení importu jádra selhalo - Nalezeno neznámé nastavení"
   },
   "importCoreSettingsText": {
      "description": "Import Core Settings",
      "message": "Nastavení jádra importu"
   },
   "importFileTypeInvalid": {
      "description": "File given is not a type we handle",
      "message": "Uvedený soubor není typ, kterým se zabýváme"
   },
   "importFileValidationFailed": {
      "description": "File given failed validation",
      "message": "Zadaný soubor se nepodařilo ověřit"
   },
   "importMissingKey": {
      "description": "Missing identifier",
      "message": "Chybějící identifikátor"
   },
   "importURLSText": {
      "description": "Import Expressions",
      "message": "Importovat výrazy"
   },
   "keepAllCookiesText": {
      "description": "Keep All Cookies. Found in Expression Options. For Whitelist entries.",
      "message": "Zachovat všechny cookies"
   },
   "keepDefaultIcon": {
      "description": "Keep Default Icons on all list types.  Disabled: keep blue icon, grey for automatic cleaning disabled.  Enabled: red/yellow/blue depending on matching expressions in list.",
      "message": "Ponechat výchozí ikony ve všech typech seznamu"
   },
   "keepLocalstorageText": {
      "description": "Keep LocalStorage. Found in Expression Options. For Whitelist entries.",
      "message": "Ponechat lokální úložiště"
   },
   "keepText": {
      "description": "Keep",
      "message": "Zachovat"
   },
   "listTypeText": {
      "description": "List Type",
      "message": "Typ seznamu"
   },
   "matchedDomainExpressionText": {
      "description": "Matched Domain Expression",
      "message": "Odpovídající výraz domény"
   },
   "menuText": {
      "description": "Menu.  Only shown when the settings screen is small / when the hamburger icon shows / when the menu is collapsed.",
      "message": "Menu"
   },
   "minutesText": {
      "description": "minute(s)",
      "message": "minut(y)"
   },
   "noCleanupLogText": {
      "description": "No Cleanup Logs Found",
      "message": "Nebyly nalezeny žádné čistící protokoly"
   },
   "noExpressionsText": {
      "description": "No expressions defined.",
      "message": "Nebyly definovány žádné výrazy."
   },
   "noPrivateLogging": {
      "description": "Cleanup Logs will not be generated for tabs in Private Browsing / Incognito / InPrivate.",
      "message": "Vyčistit logy nebudou generovány pro karty v anonymním prohlížení / anonymním / InPrivate."
   },
   "noRulesText": {
      "description": "No rules matched this domain",
      "message": "Žádná pravidla neodpovídají této doméně."
   },
   "noneText": {
      "description": "None",
      "message": "Nic"
   },
   "notificationContent": {
      "description": "Some site data, including 123 Cookie(s), removed from: google.com, facebook.com",
      "message": "Některá data webu včetně $Num$ cookie odstraněna z: $Websites$",
      "placeholders": {
         "num": {
            "content": "$1",
            "example": "123"
         },
         "websites": {
            "content": "$2",
            "example": "google.com, facebook.com"
         }
      }
   },
   "notificationDisabledText": {
      "description": "Notification disabled",
      "message": "Oznámení zakázáno"
   },
   "notificationEnabledText": {
      "description": "Notification enabled",
      "message": "Oznámení povoleno"
   },
   "notificationTitle": {
      "description": "Cookies were deleted!  Used in Notification Title.",
      "message": "Cookies were deleted!"
   },
   "notifyCookieCleanUpText": {
      "description": "Show Notification After Automatic Cleanup.  Found in settings.",
      "message": "Zobrazit oznámení po automatickém čištění"
   },
   "notifyCookieCleanupDelayText": {
      "description": "Duration for Notifications",
      "message": "Doba trvání oznámení"
   },
   "oldReleasesText": {
      "description": "Older release notes can be viewed online at",
      "message": "Starší poznámky k vydání lze zobrazit online na"
   },
   "openDebugMode": {
      "description": "To view the debug outputs, open a new tab and visit",
      "message": "Chcete-li zobrazit výstupy ladění, otevřete novou kartu a navštivte"
   },
   "optionsText": {
      "description": "Options",
      "message": "Možnosti"
   },
   "popupCookieCountText": {
      "description": "Cookie(s)",
      "message": "Cookies"
   },
   "preferencesText": {
      "description": "Settings",
      "message": "Nastavení"
   },
   "questionExpression": {
      "description": "How do Expressions work?",
      "message": "Jak fungují výrazy?"
   },
   "reasonCleanCookieName": {
      "description": "Partial clean because of matched $matchedExpression$ in the $listType$.  Used in cleanup logs.",
      "message": "Částečné čištění z důvodu shodnosti $matchedExpression$ v $listType$",
      "placeholders": {
         "listType": {
            "content": "$2",
            "example": "Whitelist"
         },
         "matchedExpression": {
            "content": "$1",
            "example": "*.google.com"
         }
      }
   },
   "reasonCleanGreyList": {
      "description": "Clean because of startup cleanup and $matchedExpression$ is in the Greylist. Used in cleanup log.",
      "message": "Vyčistit kvůli čištění startu a $matchedExpression$ je v Greylist",
      "placeholders": {
         "matchedExpression": {
            "content": "$1",
            "example": "*.google.com"
         }
      }
   },
   "reasonCleanNoList": {
      "description": "Clean because $hostname$ is not in the White or Grey lists",
      "message": "Vyčistit, protože $hostname$ není v bílém nebo šedém seznamu",
      "placeholders": {
         "hostname": {
            "content": "$1",
            "example": "sub.google.com"
         }
      }
   },
   "reasonCleanStartupNoList": {
      "description": "Clean because of startup cleanup and $hostname$ is not in the White or Grey lists",
      "message": "Vyčistit kvůli startu a $hostname$ není v bílém nebo šedém seznamu",
      "placeholders": {
         "hostname": {
            "content": "$1",
            "example": "sub.google.com"
         }
      }
   },
   "reasonKeep": {
      "description": "Keep because of matched $matchedExpression$ in the $listType$",
      "message": "Ponechat z důvodu shodnosti $matchedExpression$ v $listType$",
      "placeholders": {
         "listType": {
            "content": "$2",
            "example": "Whitelist"
         },
         "matchedExpression": {
            "content": "$1",
            "example": "*.google.com"
         }
      }
   },
   "reasonKeepOpenTab": {
      "description": "Keep because of open tabs of *.$mainDomain$",
      "message": "Ponechat z otevřených panelů *.$mainDomain$",
      "placeholders": {
         "mainDomain": {
            "content": "$1",
            "example": "google.com"
         }
      }
   },
   "reasonTabsWereIgnored": {
      "description": "[Clean because of sub.google.com is not in the White or Grey lists] and also open tabs were ignored",
      "message": "a také otevřené panely byly ignorovány"
   },
   "reasonTabsWereNotIgnored": {
      "description": "[Clean because of sub.google.com is not in the White or Grey lists] or in any open tabs",
      "message": "nebo v jakémkoliv otevřeném panelu"
   },
   "regularExpressionEquivalentText": {
      "description": "Regular Expression Equivalent",
      "message": "Ekvivalentní výraz Regular výraz"
   },
   "releaseNotesText": {
      "description": "Release Notes",
      "message": "Poznámky k vydání"
   },
   "removeAllExpressions": {
      "description": "Remove All Expressions",
      "message": "Odstranit všechny výrazy"
   },
   "removeAllExpressionsConfirm": {
      "description": "Are you sure you want to remove ALL ($expressionCount$) saved expression(s) from ($listCount$) list(s)?\n\nTHIS CANNOT BE UNDONE!\n\nType [ $expressionCount$ ] and click OK to delete.  Popup prompt if Delete All Expression is clicked.",
      "message": "Jste si jisti, že chcete odstranit VŠECHNY ($expressionCount$) uložené výrazy ze seznamů ($listCount$) ?\n\nNEMŮŽE BÝT NEDONE!\n\nNapište [ $expressionCount$ ] a klepněte na tlačítko OK pro odstranění.",
      "placeholders": {
         "expressionCount": {
            "content": "$1",
            "example": "75"
         },
         "listCount": {
            "content": "$2",
            "example": "5"
         }
      }
   },
   "removeAllExpressionsNoneFound": {
      "description": "No expressions to remove!",
      "message": "Žádné výrazy k odstranění!"
   },
   "removeExpressionText": {
      "description": "Remove expression",
      "message": "Odstranit výraz"
   },
   "reportIssuesText": {
      "description": "Report issues and suggest features",
      "message": "Nahlásit problémy a navrhnout funkce"
   },
   "resetExtensionDataText": {
      "description": "Reset Extension Data",
      "message": "Resetovat data rozšíření"
   },
   "restoreText": {
      "description": "Ex: Restore Cleanup",
      "message": "Obnovit"
   },
   "reviewLinkMessage": {
      "description": "Thanks for trying out Cookie AutoDelete. If you liked it, then please give a review.",
      "message": "Děkujeme, že jste vyzkoušeli $cadTitle$. Pokud se vám líbí, pak prosím podejte recenzi.",
      "placeholders": {
         "cadTitle": {
            "content": "$1",
            "example": "Cookie AutoDelete"
         }
      }
   },
   "saveExpressionText": {
      "description": "Save expression",
      "message": "Uložit výraz"
   },
   "secondsText": {
      "description": "second(s)",
      "message": "sekund(y)"
   },
   "settingGroupAutoClean": {
      "description": "Automatic Cleaning Options",
      "message": "Možnosti automatického čištění"
   },
   "settingGroupExpression": {
      "description": "Expression Options",
      "message": "Možnosti výrazu"
   },
   "settingGroupExtension": {
      "description": "Extension Options",
      "message": "Možnosti rozšíření"
   },
   "settingGroupOtherBrowsing": {
      "description": "Other Browsing Data Cleanup Options",
      "message": "Další možnosti čištění dat"
   },
   "settingsText": {
      "description": "$CAD$ Settings",
      "message": "Nastavení cookie",
      "placeholders": {
         "CAD": {
            "content": "CAD",
            "example": "CAD - Short form of Cookie AutoDelete"
         }
      }
   },
   "showNumberOfCookiesInIconText": {
      "description": "Show Number of Cookies for that Domain over the Icon",
      "message": "Zobrazit počet souborů cookie pro danou doménu"
   },
   "sizePopupText": {
      "description": "Size of Popup (in px).  This sets the font size in the Popup.",
      "message": "Velikost vyskakovacího okna (v px)"
   },
   "sizeSettingText": {
      "description": "Size of Setting Pages (in px).  This sets the font size in the Setting Pages.",
      "message": "Velikost stránky nastavení (v px)"
   },
   "stopEditingText": {
      "description": "Stop editing",
      "message": "Zastavit úpravy"
   },
   "successText": {
      "description": "Success!",
      "message": "Úspěch!"
   },
   "toGreyListText": {
      "description": "Add to Greylist (Clean on Browser Restart)",
      "message": "Přidat do Greylist (Clean on Browser Restart)"
   },
   "toWhiteListText": {
      "description": "Add to Whitelist (Never Clean)",
      "message": "Přidat do Whitelist (nečistit)"
   },
   "toggleNotificationText": {
      "description": "Toggle to enable or disable notifications",
      "message": "Zapnout nebo vypnout oznámení"
   },
   "toggleToGreyListWordText": {
      "description": "Toggle to greylist",
      "message": "Přepnout na greylist"
   },
   "toggleToWhiteListWordText": {
      "description": "Toggle to whitelist",
      "message": "Přepnout na seznam povolených"
   },
   "versionNumberText": {
      "description": "$CAD$ version 3.2.1.  The actual number is formatted differently and will be right below this text.",
      "message": "$CAD$ verze",
      "placeholders": {
         "CAD": {
            "content": "$1",
            "example": "CAD or Cookie AutoDelete"
         }
      }
   },
   "versionText": {
      "description": "Firefox version",
      "message": "$browser$ verze",
      "placeholders": {
         "browser": {
            "content": "$1",
            "example": "Firefox"
         }
      }
   },
   "welcomeMessage": {
      "description": "Hi there! During this session, Cookie AutoDelete has deleted 123 cookies and in total 456 cookies.",
      "message": "Ahoj! Během této relace $cadTitle$ odstranil $sessionDeleted$ cookies a celkem $totalDeleted$ cookies.",
      "placeholders": {
         "cadTitle": {
            "content": "$1",
            "example": "Cookie AutoDelete"
         },
         "sessionDeleted": {
            "content": "$2",
            "example": "123"
         },
         "totalDeleted": {
            "content": "$3",
            "example": "456"
         }
      }
   },
   "welcomeText": {
      "description": "Welcome",
      "message": "Vítejte"
   },
   "whiteCleanLocalstorage": {
      "description": "Uncheck 'Keep LocalStorage' on New Whitelist Expressions",
      "message": "Zrušte zaškrtnutí 'Ponechat LocalStorage' na Novém Whitelistu výrazů"
   },
   "whiteListWordText": {
      "description": "Whitelist",
      "message": "Seznam povolených"
   }
}
